%YAML 1.1
%TAG !u! tag:unity3d.com,2011:
--- !u!1 &4952482664236313781
GameObject:
  m_ObjectHideFlags: 0
  m_CorrespondingSourceObject: {fileID: 0}
  m_PrefabInstance: {fileID: 0}
  m_PrefabAsset: {fileID: 0}
  serializedVersion: 6
  m_Component:
  - component: {fileID: 7781148629469264386}
  m_Layer: 0
  m_Name: UnitSpawner_Medium_Preview
  m_TagString: Untagged
  m_Icon: {fileID: 0}
  m_NavMeshLayer: 0
  m_StaticEditorFlags: 0
  m_IsActive: 1
--- !u!4 &7781148629469264386
Transform:
  m_ObjectHideFlags: 0
  m_CorrespondingSourceObject: {fileID: 0}
  m_PrefabInstance: {fileID: 0}
  m_PrefabAsset: {fileID: 0}
  m_GameObject: {fileID: 4952482664236313781}
  m_LocalRotation: {x: 0, y: 0, z: 0, w: 1}
  m_LocalPosition: {x: 0, y: 0, z: 0}
  m_LocalScale: {x: 1, y: 1, z: 1}
  m_Children:
  - {fileID: 4804280299789906512}
  m_Father: {fileID: 0}
  m_RootOrder: 0
  m_LocalEulerAnglesHint: {x: 0, y: 0, z: 0}
--- !u!1001 &4804280299790035154
PrefabInstance:
  m_ObjectHideFlags: 0
  serializedVersion: 2
  m_Modification:
    m_TransformParent: {fileID: 7781148629469264386}
    m_Modifications:
    - target: {fileID: 100002, guid: f698f69d64c51f8438d853e5c274e5fc, type: 3}
      propertyPath: m_Name
      value: Building01
      objectReference: {fileID: 0}
    - target: {fileID: 400002, guid: f698f69d64c51f8438d853e5c274e5fc, type: 3}
      propertyPath: m_RootOrder
      value: 0
      objectReference: {fileID: 0}
    - target: {fileID: 400002, guid: f698f69d64c51f8438d853e5c274e5fc, type: 3}
      propertyPath: m_LocalScale.x
      value: 0.3
      objectReference: {fileID: 0}
    - target: {fileID: 400002, guid: f698f69d64c51f8438d853e5c274e5fc, type: 3}
      propertyPath: m_LocalScale.y
      value: 0.3
      objectReference: {fileID: 0}
    - target: {fileID: 400002, guid: f698f69d64c51f8438d853e5c274e5fc, type: 3}
      propertyPath: m_LocalScale.z
      value: 0.2
      objectReference: {fileID: 0}
    - target: {fileID: 400002, guid: f698f69d64c51f8438d853e5c274e5fc, type: 3}
      propertyPath: m_LocalPosition.x
      value: 0
      objectReference: {fileID: 0}
    - target: {fileID: 400002, guid: f698f69d64c51f8438d853e5c274e5fc, type: 3}
      propertyPath: m_LocalPosition.y
      value: 0
      objectReference: {fileID: 0}
    - target: {fileID: 400002, guid: f698f69d64c51f8438d853e5c274e5fc, type: 3}
      propertyPath: m_LocalPosition.z
      value: 0
      objectReference: {fileID: 0}
    - target: {fileID: 400002, guid: f698f69d64c51f8438d853e5c274e5fc, type: 3}
      propertyPath: m_LocalRotation.w
      value: 1
      objectReference: {fileID: 0}
    - target: {fileID: 400002, guid: f698f69d64c51f8438d853e5c274e5fc, type: 3}
      propertyPath: m_LocalRotation.x
      value: 0
      objectReference: {fileID: 0}
    - target: {fileID: 400002, guid: f698f69d64c51f8438d853e5c274e5fc, type: 3}
      propertyPath: m_LocalRotation.y
      value: 0
      objectReference: {fileID: 0}
    - target: {fileID: 400002, guid: f698f69d64c51f8438d853e5c274e5fc, type: 3}
      propertyPath: m_LocalRotation.z
      value: 0
      objectReference: {fileID: 0}
    - target: {fileID: 400002, guid: f698f69d64c51f8438d853e5c274e5fc, type: 3}
      propertyPath: m_LocalEulerAnglesHint.x
      value: 0
      objectReference: {fileID: 0}
    - target: {fileID: 400002, guid: f698f69d64c51f8438d853e5c274e5fc, type: 3}
      propertyPath: m_LocalEulerAnglesHint.y
      value: 0
      objectReference: {fileID: 0}
    - target: {fileID: 400002, guid: f698f69d64c51f8438d853e5c274e5fc, type: 3}
      propertyPath: m_LocalEulerAnglesHint.z
      value: 0
      objectReference: {fileID: 0}
    - target: {fileID: 2300002, guid: f698f69d64c51f8438d853e5c274e5fc, type: 3}
      propertyPath: m_Materials.Array.data[0]
      value: 
      objectReference: {fileID: 2100000, guid: cc583de2269d1bb4c8eea0f80e0a1da3, type: 2}
    m_RemovedComponents: []
  m_SourcePrefab: {fileID: 100100000, guid: f698f69d64c51f8438d853e5c274e5fc, type: 3}
--- !u!4 &4804280299789906512 stripped
Transform:
  m_CorrespondingSourceObject: {fileID: 400002, guid: f698f69d64c51f8438d853e5c274e5fc, type: 3}
  m_PrefabInstance: {fileID: 4804280299790035154}
  m_PrefabAsset: {fileID: 0}
